[
  {
    "model": "education.course",
    "pk": 1,
    "fields": {
      "title": "Theoretical Computer Science",
      "description": "---"
    }
  },
  {
    "model": "education.course",
    "pk": 2,
    "fields": {
      "title": "Operating System",
      "description": "---"
    }
  },
  {
    "model": "education.course",
    "pk": 3,
    "fields": {
      "title": "Linear Algebra",
      "description": "---"
    }
  },
  {
    "model": "education.course",
    "pk": 4,
    "fields": {
      "title": "Discrete Math & Logic",
      "description": "---"
    }
  }
]